G04 DipTrace 2.4.0.2*
%INTopMask.gbr*%
%MOIN*%
%ADD18C,0.0157*%
%ADD27C,0.0126*%
%ADD28O,0.0757X0.0751*%
%ADD29O,0.0751X0.0757*%
%ADD41C,0.1063*%
%ADD52C,0.1102*%
%ADD73C,0.1575*%
%ADD79C,0.126*%
%ADD81R,0.0835X0.0331*%
%ADD83R,0.4193X0.3346*%
%ADD85R,0.0492X0.1575*%
%ADD87R,0.0472X0.0571*%
%ADD89R,0.0315X0.0787*%
%ADD91R,0.0787X0.0315*%
%ADD93R,0.0565X0.0669*%
%ADD99R,0.0866X0.0709*%
%ADD101R,0.0579X0.0394*%
%ADD103R,0.1087X0.0709*%
%ADD105R,0.0394X0.0579*%
%ADD107C,0.1579*%
%ADD109C,0.1181*%
%ADD111R,0.126X0.0646*%
%ADD113R,0.1429X0.137*%
%ADD115R,0.1681X0.2087*%
%ADD117R,0.1421X0.1421*%
%ADD119R,0.1417X0.1421*%
%ADD121R,0.1177X0.1421*%
%ADD123R,0.126X0.0205*%
%ADD125R,0.0709X0.0205*%
%ADD127C,0.1142*%
%ADD128R,0.0394X0.0472*%
%ADD130O,0.0835X0.0709*%
%ADD132R,0.0472X0.0394*%
%ADD134C,0.0835*%
%ADD136C,0.0787*%
%ADD138O,0.0787X0.0945*%
%FSLAX44Y44*%
G04*
G70*
G90*
G75*
G01*
%LNTopMask*%
%LPD*%
D138*
X13808Y8577D3*
X14808D3*
X15808D3*
X16804Y8576D3*
X17804D3*
X11813Y8582D3*
X12813D3*
D136*
X19312Y22062D3*
Y23070D3*
Y24078D3*
Y25086D3*
Y26093D3*
D134*
X8812Y28437D3*
X7804D3*
X6796D3*
X5788D3*
D132*
X30978Y30187D3*
X30306D3*
X30944Y29437D3*
X30272D3*
D134*
X30940Y31940D3*
X29956D3*
D130*
X33878Y21251D3*
Y20306D3*
D132*
X6416Y27064D3*
X5744Y27065D3*
D128*
X24812Y23771D3*
Y24443D3*
X20687Y33646D3*
Y34318D3*
X10687Y24021D3*
Y24693D3*
X7692Y9218D3*
Y8547D3*
D132*
X31646Y30187D3*
X32318D3*
D134*
X11052Y18456D3*
Y17471D3*
D128*
X6000Y7121D3*
Y6449D3*
D132*
X7401Y14676D3*
X6729Y14677D3*
D134*
X9062Y13062D3*
Y12078D3*
D128*
X20687Y32569D3*
Y31897D3*
Y30146D3*
Y30818D3*
D132*
X10771Y13062D3*
X11443D3*
X13103D3*
X12431D3*
D134*
X14308Y10849D3*
X13324D3*
D132*
X12396Y21187D3*
X13068D3*
X37387Y21140D3*
X38059D3*
D128*
X36632Y22543D3*
X36631Y21871D3*
D132*
X30021Y20187D3*
X30693D3*
X31646Y29437D3*
X32318D3*
D128*
X5985Y15308D3*
Y14636D3*
X24062Y23771D3*
Y24443D3*
X24687Y22853D3*
Y22181D3*
X25437Y22853D3*
Y22181D3*
X23937Y22853D3*
Y22181D3*
D127*
X26441Y18053D3*
X23921D3*
X26441Y16290D3*
X23921D3*
X30177Y18033D3*
X27657D3*
X30177Y16269D3*
X27657D3*
X33961Y17991D3*
X31441D3*
X33961Y16227D3*
X31441D3*
X26455Y14306D3*
X23935D3*
X26455Y12542D3*
X23935D3*
X30241Y14320D3*
X27722D3*
X30241Y12556D3*
X27722D3*
X33999Y14309D3*
X31480D3*
X33999Y12545D3*
X31480D3*
X26474Y10646D3*
X23954D3*
X26474Y8882D3*
X23954D3*
X30313Y10595D3*
X27794D3*
X30313Y8831D3*
X27794D3*
X34093Y10596D3*
X31573D3*
X34093Y8832D3*
X31573D3*
X26477Y6932D3*
X23958D3*
X26477Y5168D3*
X23958D3*
X30374Y6944D3*
X27854D3*
X30374Y5180D3*
X27854D3*
X34148Y6932D3*
X31628D3*
X34148Y5168D3*
X31628D3*
D125*
X12313Y26439D3*
D123*
X12037Y26183D3*
D125*
X12313Y25926D3*
D123*
X12037Y25671D3*
D125*
X12313Y25415D3*
D123*
X12037Y25159D3*
D125*
X12313Y24903D3*
D123*
X12037Y24647D3*
D125*
X12313Y24391D3*
X14599D3*
D123*
X14874Y24647D3*
D125*
X14599Y24903D3*
D123*
X14874Y25159D3*
D125*
X14599Y25415D3*
D123*
X14874Y25671D3*
D125*
X14599Y25926D3*
D123*
X14874Y26182D3*
D125*
X14599Y26438D3*
D123*
X12037Y24147D3*
X14874D3*
D121*
X39274Y7665D3*
D119*
X37311Y7672D3*
D117*
X37315Y18633D3*
D115*
X39448Y18321D3*
D113*
X39567Y20250D3*
D111*
X14320Y34189D3*
Y33244D3*
Y32174D3*
X18477Y34189D3*
Y33244D3*
Y32174D3*
D52*
X34735Y35107D3*
Y33107D3*
X36735Y35107D3*
D109*
X35735Y34107D3*
D52*
X36735Y33107D3*
D107*
X16849Y6355D3*
X12849D3*
X14849D3*
X8859Y6356D3*
X10859D3*
X18842Y6353D3*
X20842D3*
D105*
X8160Y9979D3*
X8916D3*
X8538Y11026D3*
X4437Y6334D3*
X5193D3*
X4815Y7381D3*
D103*
X11937Y9625D3*
Y11514D3*
D101*
X13062Y21687D3*
Y22443D3*
X12015Y22065D3*
D103*
X14466Y14794D3*
Y12904D3*
D99*
X33187Y29437D3*
Y30794D3*
D128*
X37427Y22547D3*
Y21875D3*
D132*
X35952Y21143D3*
X36624D3*
D93*
X27313Y34731D3*
X28195D3*
X29570Y34737D3*
X30452D3*
X31922Y34746D3*
X32804D3*
X25071Y34729D3*
X25953D3*
X22848Y34757D3*
X23730D3*
D91*
X26434Y26976D3*
Y26543D3*
Y26110D3*
Y25677D3*
Y25244D3*
Y24810D3*
Y24377D3*
Y23944D3*
Y23511D3*
Y23078D3*
Y22645D3*
Y22212D3*
D89*
X27832Y21070D3*
X28265D3*
X28698D3*
X29131D3*
X29564D3*
X29997D3*
X30430D3*
X30863D3*
X31297D3*
D91*
X32694Y22212D3*
Y22645D3*
Y23078D3*
Y23511D3*
Y23944D3*
Y24377D3*
Y24810D3*
Y25244D3*
Y25677D3*
Y26110D3*
Y26543D3*
Y26976D3*
D89*
X31297Y28118D3*
X30863D3*
X30430D3*
X29997D3*
X29564D3*
X29131D3*
X28698D3*
X28265D3*
X27832D3*
D132*
X6730Y15426D3*
X7399Y15427D3*
D128*
X9857Y28103D3*
Y28771D3*
D132*
X17523Y24562D3*
X18192D3*
X17523Y23812D3*
X18192D3*
D128*
X21437Y33648D3*
Y34317D3*
Y32567D3*
Y31898D3*
X20814Y26064D3*
X20813Y26733D3*
X21437Y24148D3*
Y24817D3*
X21564Y26064D3*
X21563Y26733D3*
D132*
X22689Y27815D3*
X22020Y27814D3*
D128*
X13403Y18058D3*
Y18726D3*
D87*
X35849Y27063D3*
X36636D3*
X36644Y25969D3*
X35856D3*
D128*
X19437Y19726D3*
Y19057D3*
X11687Y20523D3*
Y21192D3*
D132*
X13067Y20437D3*
X12398D3*
X25103Y33690D3*
X24435D3*
X27351Y19062D3*
X26682D3*
X21132Y18443D3*
X20463D3*
X21074Y17476D3*
X20405D3*
X27351Y33812D3*
X26682D3*
D128*
X20687Y24817D3*
Y24148D3*
X28812Y30648D3*
Y31317D3*
D132*
X17876Y16255D3*
X17207D3*
X20230Y16533D3*
X20898D3*
X32148Y33812D3*
X32817D3*
X32851Y33062D3*
X32182D3*
X22976Y22937D3*
X22307D3*
D128*
X8712Y8555D3*
X8711Y9224D3*
X6675Y8550D3*
X6674Y9219D3*
X7008Y6466D3*
X7007Y7134D3*
X5659Y8545D3*
Y9214D3*
D132*
X20067Y20437D3*
X19398D3*
D128*
X21437Y30148D3*
Y30817D3*
D132*
X33648Y19062D3*
X34317D3*
X22845Y16211D3*
X22177D3*
X8105Y14676D3*
X8774Y14677D3*
Y15427D3*
X8105Y15426D3*
X20469Y19458D3*
X21137D3*
X22836Y19189D3*
X22168D3*
D128*
X25708Y30996D3*
X25707Y31665D3*
D132*
X26525Y32315D3*
X27194D3*
D85*
X5687Y17055D3*
X6356D3*
X7026D3*
X7695D3*
X8364D3*
D83*
X7026Y21599D3*
D81*
X12595Y13819D3*
Y14322D3*
Y14826D3*
Y15330D3*
X10454Y13819D3*
Y14322D3*
Y14826D3*
Y15330D3*
D79*
X21730Y10155D3*
Y14942D3*
X16186Y12549D3*
X16942Y14942D3*
Y10155D3*
D41*
X15107Y19312D3*
X17626D3*
D105*
X18687Y16812D3*
X19443D3*
X19065Y17859D3*
D101*
X14401Y16478D3*
Y17234D3*
X13354Y16856D3*
D105*
X28062Y32062D3*
X28818D3*
X28440Y33109D3*
D101*
X22251Y26752D3*
Y25996D3*
X23299Y26374D3*
X22210Y24900D3*
Y24144D3*
X23257Y24522D3*
X26458Y31660D3*
Y30905D3*
X27505Y31282D3*
D103*
X10750Y9625D3*
Y11514D3*
D73*
X39140Y34538D3*
X6463Y11310D3*
X6461Y34542D3*
D18*
X14792Y23168D3*
X6323Y4675D2*
D27*
X5322D1*
X5822Y5175D2*
Y4174D1*
D28*
X4646Y4675D3*
X39145Y30151D2*
D27*
Y31153D1*
X39646Y30652D2*
X38644D1*
D29*
X39145Y31828D3*
D138*
X13808Y40702D3*
X14808D3*
X15808D3*
X16804Y40701D3*
X17804D3*
X11813Y40707D3*
X12813D3*
D136*
X19312Y54187D3*
Y55195D3*
Y56203D3*
Y57211D3*
Y58218D3*
D134*
X8812Y60562D3*
X7804D3*
X6796D3*
X5788D3*
D132*
X30978Y62312D3*
X30306D3*
X30944Y61562D3*
X30272D3*
D134*
X30940Y64065D3*
X29956D3*
D130*
X33878Y53376D3*
Y52431D3*
D132*
X6416Y59189D3*
X5744Y59190D3*
D128*
X24812Y55896D3*
Y56568D3*
X20687Y65771D3*
Y66443D3*
X10687Y56146D3*
Y56818D3*
X7692Y41343D3*
Y40672D3*
D132*
X31646Y62312D3*
X32318D3*
D134*
X11052Y50581D3*
Y49596D3*
D128*
X6000Y39246D3*
Y38574D3*
D132*
X7401Y46801D3*
X6729Y46802D3*
D134*
X9062Y45187D3*
Y44203D3*
D128*
X20687Y64694D3*
Y64022D3*
Y62271D3*
Y62943D3*
D132*
X10771Y45187D3*
X11443D3*
X13103D3*
X12431D3*
D134*
X14308Y42974D3*
X13324D3*
D132*
X12396Y53312D3*
X13068D3*
X37387Y53265D3*
X38059D3*
D128*
X36632Y54668D3*
X36631Y53996D3*
D132*
X30021Y52312D3*
X30693D3*
X31646Y61562D3*
X32318D3*
D128*
X5985Y47433D3*
Y46761D3*
X24062Y55896D3*
Y56568D3*
X24687Y54978D3*
Y54306D3*
X25437Y54978D3*
Y54306D3*
X23937Y54978D3*
Y54306D3*
D127*
X26441Y50178D3*
X23921D3*
X26441Y48415D3*
X23921D3*
X30177Y50158D3*
X27657D3*
X30177Y48394D3*
X27657D3*
X33961Y50116D3*
X31441D3*
X33961Y48352D3*
X31441D3*
X26455Y46431D3*
X23935D3*
X26455Y44667D3*
X23935D3*
X30241Y46445D3*
X27722D3*
X30241Y44681D3*
X27722D3*
X33999Y46434D3*
X31480D3*
X33999Y44670D3*
X31480D3*
X26474Y42771D3*
X23954D3*
X26474Y41007D3*
X23954D3*
X30313Y42720D3*
X27794D3*
X30313Y40956D3*
X27794D3*
X34093Y42721D3*
X31573D3*
X34093Y40957D3*
X31573D3*
X26477Y39057D3*
X23958D3*
X26477Y37293D3*
X23958D3*
X30374Y39069D3*
X27854D3*
X30374Y37305D3*
X27854D3*
X34148Y39057D3*
X31628D3*
X34148Y37293D3*
X31628D3*
D125*
X12313Y58564D3*
D123*
X12037Y58308D3*
D125*
X12313Y58051D3*
D123*
X12037Y57796D3*
D125*
X12313Y57540D3*
D123*
X12037Y57284D3*
D125*
X12313Y57028D3*
D123*
X12037Y56772D3*
D125*
X12313Y56516D3*
X14599D3*
D123*
X14874Y56772D3*
D125*
X14599Y57028D3*
D123*
X14874Y57284D3*
D125*
X14599Y57540D3*
D123*
X14874Y57796D3*
D125*
X14599Y58051D3*
D123*
X14874Y58307D3*
D125*
X14599Y58563D3*
D123*
X12037Y56272D3*
X14874D3*
D121*
X39274Y39790D3*
D119*
X37311Y39797D3*
D117*
X37315Y50758D3*
D115*
X39448Y50446D3*
D113*
X39567Y52375D3*
D111*
X14320Y66314D3*
Y65369D3*
Y64299D3*
X18477Y66314D3*
Y65369D3*
Y64299D3*
D52*
X34735Y67232D3*
Y65232D3*
X36735Y67232D3*
D109*
X35735Y66232D3*
D52*
X36735Y65232D3*
D107*
X16849Y38480D3*
X12849D3*
X14849D3*
X8859Y38481D3*
X10859D3*
X18842Y38478D3*
X20842D3*
D105*
X8160Y42104D3*
X8916D3*
X8538Y43151D3*
X4437Y38459D3*
X5193D3*
X4815Y39506D3*
D103*
X11937Y41750D3*
Y43639D3*
D101*
X13062Y53812D3*
Y54568D3*
X12015Y54190D3*
D103*
X14466Y46919D3*
Y45029D3*
D99*
X33187Y61562D3*
Y62919D3*
D128*
X37427Y54672D3*
Y54000D3*
D132*
X35952Y53268D3*
X36624D3*
D93*
X27313Y66856D3*
X28195D3*
X29570Y66862D3*
X30452D3*
X31922Y66871D3*
X32804D3*
X25071Y66854D3*
X25953D3*
X22848Y66882D3*
X23730D3*
D91*
X26434Y59101D3*
Y58668D3*
Y58235D3*
Y57802D3*
Y57369D3*
Y56935D3*
Y56502D3*
Y56069D3*
Y55636D3*
Y55203D3*
Y54770D3*
Y54337D3*
D89*
X27832Y53195D3*
X28265D3*
X28698D3*
X29131D3*
X29564D3*
X29997D3*
X30430D3*
X30863D3*
X31297D3*
D91*
X32694Y54337D3*
Y54770D3*
Y55203D3*
Y55636D3*
Y56069D3*
Y56502D3*
Y56935D3*
Y57369D3*
Y57802D3*
Y58235D3*
Y58668D3*
Y59101D3*
D89*
X31297Y60243D3*
X30863D3*
X30430D3*
X29997D3*
X29564D3*
X29131D3*
X28698D3*
X28265D3*
X27832D3*
D132*
X6730Y47551D3*
X7399Y47552D3*
D128*
X9857Y60228D3*
Y60896D3*
D132*
X17523Y56687D3*
X18192D3*
X17523Y55937D3*
X18192D3*
D128*
X21437Y65773D3*
Y66442D3*
Y64692D3*
Y64023D3*
X20814Y58189D3*
X20813Y58858D3*
X21437Y56273D3*
Y56942D3*
X21564Y58189D3*
X21563Y58858D3*
D132*
X22689Y59940D3*
X22020Y59939D3*
D128*
X13403Y50183D3*
Y50851D3*
D87*
X35849Y59188D3*
X36636D3*
X36644Y58094D3*
X35856D3*
D128*
X19437Y51851D3*
Y51182D3*
X11687Y52648D3*
Y53317D3*
D132*
X13067Y52562D3*
X12398D3*
X25103Y65815D3*
X24435D3*
X27351Y51187D3*
X26682D3*
X21132Y50568D3*
X20463D3*
X21074Y49601D3*
X20405D3*
X27351Y65937D3*
X26682D3*
D128*
X20687Y56942D3*
Y56273D3*
X28812Y62773D3*
Y63442D3*
D132*
X17876Y48380D3*
X17207D3*
X20230Y48658D3*
X20898D3*
X32148Y65937D3*
X32817D3*
X32851Y65187D3*
X32182D3*
X22976Y55062D3*
X22307D3*
D128*
X8712Y40680D3*
X8711Y41349D3*
X6675Y40675D3*
X6674Y41344D3*
X7008Y38591D3*
X7007Y39259D3*
X5659Y40670D3*
Y41339D3*
D132*
X20067Y52562D3*
X19398D3*
D128*
X21437Y62273D3*
Y62942D3*
D132*
X33648Y51187D3*
X34317D3*
X22845Y48336D3*
X22177D3*
X8105Y46801D3*
X8774Y46802D3*
Y47552D3*
X8105Y47551D3*
X20469Y51583D3*
X21137D3*
X22836Y51314D3*
X22168D3*
D128*
X25708Y63121D3*
X25707Y63790D3*
D132*
X26525Y64440D3*
X27194D3*
D85*
X5687Y49180D3*
X6356D3*
X7026D3*
X7695D3*
X8364D3*
D83*
X7026Y53724D3*
D81*
X12595Y45944D3*
Y46447D3*
Y46951D3*
Y47455D3*
X10454Y45944D3*
Y46447D3*
Y46951D3*
Y47455D3*
D79*
X21730Y42280D3*
Y47067D3*
X16186Y44674D3*
X16942Y47067D3*
Y42280D3*
D41*
X15107Y51437D3*
X17626D3*
D105*
X18687Y48937D3*
X19443D3*
X19065Y49984D3*
D101*
X14401Y48603D3*
Y49359D3*
X13354Y48981D3*
D105*
X28062Y64187D3*
X28818D3*
X28440Y65234D3*
D101*
X22251Y58877D3*
Y58121D3*
X23299Y58499D3*
X22210Y57025D3*
Y56269D3*
X23257Y56647D3*
X26458Y63785D3*
Y63030D3*
X27505Y63407D3*
D103*
X10750Y41750D3*
Y43639D3*
D73*
X39140Y66663D3*
X6463Y43435D3*
X6461Y66667D3*
D18*
X14792Y55293D3*
X6323Y36800D2*
D27*
X5322D1*
X5822Y37300D2*
Y36299D1*
D28*
X4646Y36800D3*
X39145Y62276D2*
D27*
Y63278D1*
X39646Y62777D2*
X38644D1*
D29*
X39145Y63953D3*
D138*
X13808Y72827D3*
X14808D3*
X15808D3*
X16804Y72826D3*
X17804D3*
X11813Y72832D3*
X12813D3*
D136*
X19312Y86312D3*
Y87320D3*
Y88328D3*
Y89336D3*
Y90343D3*
D134*
X8812Y92687D3*
X7804D3*
X6796D3*
X5788D3*
D132*
X30978Y94437D3*
X30306D3*
X30944Y93687D3*
X30272D3*
D134*
X30940Y96190D3*
X29956D3*
D130*
X33878Y85501D3*
Y84556D3*
D132*
X6416Y91314D3*
X5744Y91315D3*
D128*
X24812Y88021D3*
Y88693D3*
X20687Y97896D3*
Y98568D3*
X10687Y88271D3*
Y88943D3*
X7692Y73468D3*
Y72797D3*
D132*
X31646Y94437D3*
X32318D3*
D134*
X11052Y82706D3*
Y81721D3*
D128*
X6000Y71371D3*
Y70699D3*
D132*
X7401Y78926D3*
X6729Y78927D3*
D134*
X9062Y77312D3*
Y76328D3*
D128*
X20687Y96819D3*
Y96147D3*
Y94396D3*
Y95068D3*
D132*
X10771Y77312D3*
X11443D3*
X13103D3*
X12431D3*
D134*
X14308Y75099D3*
X13324D3*
D132*
X12396Y85437D3*
X13068D3*
X37387Y85390D3*
X38059D3*
D128*
X36632Y86793D3*
X36631Y86121D3*
D132*
X30021Y84437D3*
X30693D3*
X31646Y93687D3*
X32318D3*
D128*
X5985Y79558D3*
Y78886D3*
X24062Y88021D3*
Y88693D3*
X24687Y87103D3*
Y86431D3*
X25437Y87103D3*
Y86431D3*
X23937Y87103D3*
Y86431D3*
D127*
X26441Y82303D3*
X23921D3*
X26441Y80540D3*
X23921D3*
X30177Y82283D3*
X27657D3*
X30177Y80519D3*
X27657D3*
X33961Y82241D3*
X31441D3*
X33961Y80477D3*
X31441D3*
X26455Y78556D3*
X23935D3*
X26455Y76792D3*
X23935D3*
X30241Y78570D3*
X27722D3*
X30241Y76806D3*
X27722D3*
X33999Y78559D3*
X31480D3*
X33999Y76795D3*
X31480D3*
X26474Y74896D3*
X23954D3*
X26474Y73132D3*
X23954D3*
X30313Y74845D3*
X27794D3*
X30313Y73081D3*
X27794D3*
X34093Y74846D3*
X31573D3*
X34093Y73082D3*
X31573D3*
X26477Y71182D3*
X23958D3*
X26477Y69418D3*
X23958D3*
X30374Y71194D3*
X27854D3*
X30374Y69430D3*
X27854D3*
X34148Y71182D3*
X31628D3*
X34148Y69418D3*
X31628D3*
D125*
X12313Y90689D3*
D123*
X12037Y90433D3*
D125*
X12313Y90176D3*
D123*
X12037Y89921D3*
D125*
X12313Y89665D3*
D123*
X12037Y89409D3*
D125*
X12313Y89153D3*
D123*
X12037Y88897D3*
D125*
X12313Y88641D3*
X14599D3*
D123*
X14874Y88897D3*
D125*
X14599Y89153D3*
D123*
X14874Y89409D3*
D125*
X14599Y89665D3*
D123*
X14874Y89921D3*
D125*
X14599Y90176D3*
D123*
X14874Y90432D3*
D125*
X14599Y90688D3*
D123*
X12037Y88397D3*
X14874D3*
D121*
X39274Y71915D3*
D119*
X37311Y71922D3*
D117*
X37315Y82883D3*
D115*
X39448Y82571D3*
D113*
X39567Y84500D3*
D111*
X14320Y98439D3*
Y97494D3*
Y96424D3*
X18477Y98439D3*
Y97494D3*
Y96424D3*
D52*
X34735Y99357D3*
Y97357D3*
X36735Y99357D3*
D109*
X35735Y98357D3*
D52*
X36735Y97357D3*
D107*
X16849Y70605D3*
X12849D3*
X14849D3*
X8859Y70606D3*
X10859D3*
X18842Y70603D3*
X20842D3*
D105*
X8160Y74229D3*
X8916D3*
X8538Y75276D3*
X4437Y70584D3*
X5193D3*
X4815Y71631D3*
D103*
X11937Y73875D3*
Y75764D3*
D101*
X13062Y85937D3*
Y86693D3*
X12015Y86315D3*
D103*
X14466Y79044D3*
Y77154D3*
D99*
X33187Y93687D3*
Y95044D3*
D128*
X37427Y86797D3*
Y86125D3*
D132*
X35952Y85393D3*
X36624D3*
D93*
X27313Y98981D3*
X28195D3*
X29570Y98987D3*
X30452D3*
X31922Y98996D3*
X32804D3*
X25071Y98979D3*
X25953D3*
X22848Y99007D3*
X23730D3*
D91*
X26434Y91226D3*
Y90793D3*
Y90360D3*
Y89927D3*
Y89494D3*
Y89060D3*
Y88627D3*
Y88194D3*
Y87761D3*
Y87328D3*
Y86895D3*
Y86462D3*
D89*
X27832Y85320D3*
X28265D3*
X28698D3*
X29131D3*
X29564D3*
X29997D3*
X30430D3*
X30863D3*
X31297D3*
D91*
X32694Y86462D3*
Y86895D3*
Y87328D3*
Y87761D3*
Y88194D3*
Y88627D3*
Y89060D3*
Y89494D3*
Y89927D3*
Y90360D3*
Y90793D3*
Y91226D3*
D89*
X31297Y92368D3*
X30863D3*
X30430D3*
X29997D3*
X29564D3*
X29131D3*
X28698D3*
X28265D3*
X27832D3*
D132*
X6730Y79676D3*
X7399Y79677D3*
D128*
X9857Y92353D3*
Y93021D3*
D132*
X17523Y88812D3*
X18192D3*
X17523Y88062D3*
X18192D3*
D128*
X21437Y97898D3*
Y98567D3*
Y96817D3*
Y96148D3*
X20814Y90314D3*
X20813Y90983D3*
X21437Y88398D3*
Y89067D3*
X21564Y90314D3*
X21563Y90983D3*
D132*
X22689Y92065D3*
X22020Y92064D3*
D128*
X13403Y82308D3*
Y82976D3*
D87*
X35849Y91313D3*
X36636D3*
X36644Y90219D3*
X35856D3*
D128*
X19437Y83976D3*
Y83307D3*
X11687Y84773D3*
Y85442D3*
D132*
X13067Y84687D3*
X12398D3*
X25103Y97940D3*
X24435D3*
X27351Y83312D3*
X26682D3*
X21132Y82693D3*
X20463D3*
X21074Y81726D3*
X20405D3*
X27351Y98062D3*
X26682D3*
D128*
X20687Y89067D3*
Y88398D3*
X28812Y94898D3*
Y95567D3*
D132*
X17876Y80505D3*
X17207D3*
X20230Y80783D3*
X20898D3*
X32148Y98062D3*
X32817D3*
X32851Y97312D3*
X32182D3*
X22976Y87187D3*
X22307D3*
D128*
X8712Y72805D3*
X8711Y73474D3*
X6675Y72800D3*
X6674Y73469D3*
X7008Y70716D3*
X7007Y71384D3*
X5659Y72795D3*
Y73464D3*
D132*
X20067Y84687D3*
X19398D3*
D128*
X21437Y94398D3*
Y95067D3*
D132*
X33648Y83312D3*
X34317D3*
X22845Y80461D3*
X22177D3*
X8105Y78926D3*
X8774Y78927D3*
Y79677D3*
X8105Y79676D3*
X20469Y83708D3*
X21137D3*
X22836Y83439D3*
X22168D3*
D128*
X25708Y95246D3*
X25707Y95915D3*
D132*
X26525Y96565D3*
X27194D3*
D85*
X5687Y81305D3*
X6356D3*
X7026D3*
X7695D3*
X8364D3*
D83*
X7026Y85849D3*
D81*
X12595Y78069D3*
Y78572D3*
Y79076D3*
Y79580D3*
X10454Y78069D3*
Y78572D3*
Y79076D3*
Y79580D3*
D79*
X21730Y74405D3*
Y79192D3*
X16186Y76799D3*
X16942Y79192D3*
Y74405D3*
D41*
X15107Y83562D3*
X17626D3*
D105*
X18687Y81062D3*
X19443D3*
X19065Y82109D3*
D101*
X14401Y80728D3*
Y81484D3*
X13354Y81106D3*
D105*
X28062Y96312D3*
X28818D3*
X28440Y97359D3*
D101*
X22251Y91002D3*
Y90246D3*
X23299Y90624D3*
X22210Y89150D3*
Y88394D3*
X23257Y88772D3*
X26458Y95910D3*
Y95155D3*
X27505Y95532D3*
D103*
X10750Y73875D3*
Y75764D3*
D73*
X39140Y98788D3*
X6463Y75560D3*
X6461Y98792D3*
D18*
X14792Y87418D3*
X6323Y68925D2*
D27*
X5322D1*
X5822Y69425D2*
Y68424D1*
D28*
X4646Y68925D3*
X39145Y94401D2*
D27*
Y95403D1*
X39646Y94902D2*
X38644D1*
D29*
X39145Y96078D3*
M02*
