G04 DipTrace Beta 2.9.0.1*
G04 TopMask.gbr*
%MOIN*%
G04 #@! TF.FileFunction,Soldermask,Top*
G04 #@! TF.Part,Single*
%ADD17C,0.015748*%
%ADD28C,0.012598*%
%ADD29O,0.075748X0.075121*%
%ADD30O,0.075121X0.075748*%
%ADD44C,0.106299*%
%ADD55C,0.110236*%
%ADD76C,0.15748*%
%ADD80R,0.057874X0.03937*%
%ADD83C,0.125984*%
%ADD85R,0.083465X0.033071*%
%ADD87R,0.419291X0.334646*%
%ADD89R,0.049213X0.15748*%
%ADD91R,0.047244X0.057087*%
%ADD93C,0.008268*%
%ADD96R,0.031496X0.07874*%
%ADD98R,0.07874X0.031496*%
%ADD100R,0.056496X0.066929*%
%ADD106R,0.070866X0.086614*%
%ADD108R,0.108661X0.070866*%
%ADD110R,0.03937X0.057874*%
%ADD112C,0.157874*%
%ADD114C,0.11811*%
%ADD116R,0.125984X0.064567*%
%ADD118R,0.142913X0.137008*%
%ADD120R,0.16811X0.208661*%
%ADD122R,0.142126X0.142126*%
%ADD124R,0.141732X0.142126*%
%ADD126R,0.117717X0.142126*%
%ADD128R,0.125984X0.020472*%
%ADD130R,0.070866X0.020472*%
%ADD132C,0.114173*%
%ADD133R,0.03937X0.043307*%
%ADD135R,0.043307X0.03937*%
%ADD137R,0.037402X0.03937*%
%ADD139O,0.083465X0.070866*%
%ADD141R,0.03937X0.037402*%
%ADD143C,0.083465*%
%ADD145C,0.07874*%
%ADD147O,0.07874X0.094488*%
%FSLAX26Y26*%
G04*
G70*
G90*
G75*
G01*
G04 TopMask*
%LPD*%
D147*
X1577631Y857702D3*
X1677631D3*
X1777631D3*
X1877218Y857559D3*
X1977218D3*
X1378130Y858152D3*
X1478130D3*
D145*
X2128051Y2206201D3*
Y2306988D3*
Y2407776D3*
X2128060Y2508552D3*
Y2609344D3*
D143*
X1078051Y2843701D3*
X977264D3*
X876476D3*
X775689D3*
D141*
X3290551Y3018701D3*
X3231496D3*
X3287106Y2943701D3*
X3228051D3*
D143*
X3290551Y3193701D3*
X3192126D3*
D139*
X3590866Y2125133D3*
Y2030644D3*
D141*
X840551Y2706201D3*
X781496D3*
D137*
X2678051Y2381201D3*
Y2440256D3*
X2265551Y3368701D3*
Y3427756D3*
X1265551Y2406201D3*
Y2465256D3*
X966089Y917727D3*
Y858672D3*
D141*
X3365551Y3018701D3*
X3424606D3*
D143*
X1302029Y1761885D3*
Y1663459D3*
D137*
X796822Y707942D3*
Y648887D3*
D141*
X932839Y1405154D3*
X873783D3*
D143*
X1128051Y1206201D3*
Y1107776D3*
D137*
X2265551Y3252756D3*
Y3193701D3*
Y3018701D3*
Y3077756D3*
D141*
X1278051Y1268701D3*
X1337106D3*
X1503051D3*
X1443996D3*
D143*
X1627676Y1084946D3*
X1529251D3*
D141*
X1440551Y2118701D3*
X1499606D3*
D135*
X3933798Y2118736D3*
X4004664D3*
D133*
X3860010Y2256038D3*
Y2185172D3*
D141*
X3203051Y2018701D3*
X3262106D3*
X3365551Y2943701D3*
X3424606D3*
D137*
X795339Y1464209D3*
Y1405154D3*
X2603051Y2381201D3*
Y2440256D3*
X2665551Y2281201D3*
Y2222146D3*
X2740551Y2281201D3*
Y2222146D3*
X2590551Y2281201D3*
Y2222146D3*
D132*
X2840906Y1805329D3*
X2588937D3*
X2840906Y1628951D3*
X2588937D3*
X3214537Y1803323D3*
X2962568D3*
X3214537Y1626945D3*
X2962568D3*
X3592958Y1799097D3*
X3340990D3*
X3592958Y1622719D3*
X3340990D3*
X2842323Y1430568D3*
X2590354D3*
X2842323Y1254190D3*
X2590354D3*
X3220974Y1431954D3*
X2969005D3*
X3220974Y1255576D3*
X2969005D3*
X3596799Y1430904D3*
X3344831D3*
X3596799Y1254526D3*
X3344831D3*
X2844253Y1064602D3*
X2592285D3*
X2844253Y888224D3*
X2592285D3*
X3228180Y1059496D3*
X2976211D3*
X3228180Y883118D3*
X2976211D3*
X3606108Y1059598D3*
X3354139D3*
X3606108Y883220D3*
X3354139D3*
X2844592Y693184D3*
X2592623D3*
X2844592Y516806D3*
X2592623D3*
X3234224Y694374D3*
X2982256D3*
X3234224Y517996D3*
X2982256D3*
X3611659Y693172D3*
X3359690D3*
X3611659Y516794D3*
X3359690D3*
D130*
X1428118Y2643870D3*
D128*
X1400598Y2618280D3*
D130*
X1428118Y2592650D3*
D128*
X1400520Y2567098D3*
D130*
X1428118Y2541508D3*
D128*
X1400598Y2515917D3*
D130*
X1428118Y2490327D3*
D128*
X1400598Y2464697D3*
D130*
X1428118Y2439146D3*
X1656740D3*
D128*
X1684299Y2464697D3*
D130*
X1656740Y2490287D3*
D128*
X1684299Y2515878D3*
D130*
X1656740Y2541469D3*
D128*
X1684299Y2567059D3*
D130*
X1656740Y2592650D3*
D128*
X1684299Y2618240D3*
D130*
X1656740Y2643831D3*
D128*
X1400598Y2414697D3*
X1684299D3*
D126*
X4124282Y766487D3*
D124*
X3927904Y767196D3*
D122*
X3928337Y1863337D3*
D120*
X4141684Y1832117D3*
D118*
X4153573Y2025030D3*
D116*
X1628815Y3418925D3*
Y3324437D3*
Y3217350D3*
X2044563Y3418925D3*
Y3324437D3*
Y3217350D3*
D55*
X3670390Y3510747D3*
Y3310747D3*
X3870390Y3510747D3*
D114*
X3770390Y3410747D3*
D55*
X3870390Y3310747D3*
D112*
X1881739Y635465D3*
X1481739D3*
X1681739D3*
X1082769Y635576D3*
X1282769D3*
X2081073Y635339D3*
X2281073D3*
D110*
X1150854Y850808D3*
X1226445D3*
X1188650Y955533D3*
X640516Y633387D3*
X716106D3*
X678311Y738112D3*
D108*
X1389390Y965352D3*
Y1154328D3*
D110*
X1565551Y2068701D3*
X1641142D3*
X1603346Y2173425D3*
D108*
X1643471Y1479395D3*
Y1290419D3*
D106*
X3540551Y3106201D3*
X3404824D3*
D76*
X4110827Y3453839D3*
X843110Y1131004D3*
X842969Y3454201D3*
D133*
X3934035Y2256157D3*
Y2185291D3*
D135*
X3790635Y2118379D3*
X3861501D3*
D100*
X2928146Y3479392D3*
X3016335D3*
X3153829Y3479962D3*
X3242018D3*
X3389046Y3480839D3*
X3477235D3*
X2703991Y3479160D3*
X2792180D3*
X2481633Y3481927D3*
X2569822D3*
D98*
X2840281Y2697583D3*
Y2654276D3*
Y2610969D3*
Y2567661D3*
Y2524354D3*
Y2481047D3*
Y2437740D3*
Y2394433D3*
Y2351126D3*
Y2307819D3*
Y2264512D3*
Y2221205D3*
D96*
X2980045Y2107031D3*
X3023352D3*
X3066660D3*
X3109966D3*
X3153274D3*
X3196580D3*
X3239887D3*
X3283196D3*
X3326501D3*
D98*
X3466265Y2221205D3*
Y2264512D3*
Y2307819D3*
Y2351126D3*
Y2394433D3*
Y2437740D3*
Y2481047D3*
Y2524354D3*
Y2567661D3*
Y2610969D3*
Y2654276D3*
Y2697583D3*
D96*
X3326501Y2811756D3*
X3283196D3*
X3239887D3*
X3196580D3*
X3153274D3*
X3109966D3*
X3066660D3*
X3023352D3*
X2980045D3*
D17*
X1676062Y2316808D3*
D93*
X2178218Y2793953D3*
D141*
X873783Y1480154D3*
X932839D3*
D137*
X1182579Y2814173D3*
Y2873228D3*
D141*
X1921801Y2306201D3*
X1980856D3*
X1921801Y2231201D3*
X1980856D3*
D137*
X2340551Y3368701D3*
Y3427756D3*
Y3252756D3*
Y3193701D3*
X2278051Y2606201D3*
Y2665256D3*
X2340551Y2418701D3*
Y2477756D3*
X2353051Y2606201D3*
Y2665256D3*
D141*
X2515551Y2762451D3*
X2456496D3*
D137*
X1537146Y1809665D3*
Y1868720D3*
D91*
X3781717Y2706289D3*
X3860457D3*
X3861223Y2596874D3*
X3782483D3*
D137*
X2140551Y1968701D3*
Y1909646D3*
X1365551Y2056201D3*
Y2115256D3*
D141*
X1499606Y2043701D3*
X1440551D3*
X2703273Y3369013D3*
X2644218D3*
X2928051Y1906201D3*
X2868996D3*
X2299853Y1844272D3*
X2240798D3*
X2300294Y1747625D3*
X2241239D3*
X2928051Y3381201D3*
X2868996D3*
D137*
X2265551Y2477756D3*
Y2418701D3*
X3078051Y3068701D3*
Y3127756D3*
D141*
X1980537Y1625474D3*
X1921482D3*
X2223734Y1653315D3*
X2282789D3*
X3415551Y3381201D3*
X3474606D3*
X3478051Y3306201D3*
X3418996D3*
X2490551Y2293701D3*
X2431496D3*
D137*
X1067999Y859448D3*
Y918503D3*
X864289Y858955D3*
Y918010D3*
X897594Y650465D3*
Y709520D3*
X762760Y858413D3*
Y917469D3*
D141*
X2199606Y2043701D3*
X2140551D3*
D137*
X2340551Y3018701D3*
Y3077756D3*
D141*
X3565551Y1906201D3*
X3624606D3*
X2477482Y1621092D3*
X2418427D3*
X1011283Y1405154D3*
X1070339D3*
Y1480154D3*
X1011283D3*
X2241385Y1945776D3*
X2300440D3*
X2476566Y1918888D3*
X2417510D3*
X3340551Y1906201D3*
X3281496D3*
X2473480Y1824738D3*
X2414425D3*
X2474747Y1725936D3*
X2415692D3*
X2690551Y3118701D3*
X2631496D3*
D137*
X2767618Y3103543D3*
Y3162598D3*
D141*
X2853289Y3231499D3*
X2912344D3*
X2690551Y3043701D3*
X2631496D3*
D89*
X765551Y1631201D3*
X832480D3*
X899409D3*
X966339D3*
X1033268D3*
D87*
X899409Y2085676D3*
D85*
X1493909Y1344350D3*
Y1394744D3*
Y1445138D3*
Y1495531D3*
X1279736Y1344350D3*
Y1394744D3*
Y1445138D3*
Y1495531D3*
D83*
X2369803Y1015491D3*
Y1494231D3*
X1815472Y1254861D3*
X1891063Y1494231D3*
Y1015491D3*
D44*
X1707509Y1918698D3*
X1959478D3*
D110*
X2065551Y1681201D3*
X2141142D3*
X2103346Y1785925D3*
D80*
X1636963Y1647781D3*
Y1723371D3*
X1532239Y1685576D3*
D110*
X3003051Y3206201D3*
X3078642D3*
X3040846Y3310925D3*
D80*
X2415551Y2668701D3*
Y2593110D3*
X2520276Y2630906D3*
X2417822Y2490037D3*
Y2414446D3*
X2522546Y2452241D3*
X2842618Y3166043D3*
Y3090453D3*
X2947343Y3128248D3*
X2640551Y3268701D3*
Y3193110D3*
X2745276Y3230906D3*
X829163Y473718D2*
D28*
X729004D1*
X779083Y523798D2*
Y423639D1*
D29*
X661448Y473719D3*
X4111352Y3015092D2*
D28*
Y3115251D1*
X4161432Y3065172D2*
X4061273D1*
D30*
X4111353Y3182807D3*
D147*
X1577631Y4070202D3*
X1677631D3*
X1777631D3*
X1877218Y4070059D3*
X1977218D3*
X1378130Y4070652D3*
X1478130D3*
D145*
X2128051Y5418701D3*
Y5519488D3*
Y5620276D3*
X2128060Y5721052D3*
Y5821844D3*
D143*
X1078051Y6056201D3*
X977264D3*
X876476D3*
X775689D3*
D141*
X3290551Y6231201D3*
X3231496D3*
X3287106Y6156201D3*
X3228051D3*
D143*
X3290551Y6406201D3*
X3192126D3*
D139*
X3590866Y5337633D3*
Y5243144D3*
D141*
X840551Y5918701D3*
X781496D3*
D137*
X2678051Y5593701D3*
Y5652756D3*
X2265551Y6581201D3*
Y6640256D3*
X1265551Y5618701D3*
Y5677756D3*
X966089Y4130227D3*
Y4071172D3*
D141*
X3365551Y6231201D3*
X3424606D3*
D143*
X1302029Y4974385D3*
Y4875959D3*
D137*
X796822Y3920442D3*
Y3861387D3*
D141*
X932839Y4617654D3*
X873783D3*
D143*
X1128051Y4418701D3*
Y4320276D3*
D137*
X2265551Y6465256D3*
Y6406201D3*
Y6231201D3*
Y6290256D3*
D141*
X1278051Y4481201D3*
X1337106D3*
X1503051D3*
X1443996D3*
D143*
X1627676Y4297446D3*
X1529251D3*
D141*
X1440551Y5331201D3*
X1499606D3*
D135*
X3933798Y5331236D3*
X4004664D3*
D133*
X3860010Y5468538D3*
Y5397672D3*
D141*
X3203051Y5231201D3*
X3262106D3*
X3365551Y6156201D3*
X3424606D3*
D137*
X795339Y4676709D3*
Y4617654D3*
X2603051Y5593701D3*
Y5652756D3*
X2665551Y5493701D3*
Y5434646D3*
X2740551Y5493701D3*
Y5434646D3*
X2590551Y5493701D3*
Y5434646D3*
D132*
X2840906Y5017829D3*
X2588937D3*
X2840906Y4841451D3*
X2588937D3*
X3214537Y5015823D3*
X2962568D3*
X3214537Y4839445D3*
X2962568D3*
X3592958Y5011597D3*
X3340990D3*
X3592958Y4835219D3*
X3340990D3*
X2842323Y4643068D3*
X2590354D3*
X2842323Y4466690D3*
X2590354D3*
X3220974Y4644454D3*
X2969005D3*
X3220974Y4468076D3*
X2969005D3*
X3596799Y4643404D3*
X3344831D3*
X3596799Y4467026D3*
X3344831D3*
X2844253Y4277102D3*
X2592285D3*
X2844253Y4100724D3*
X2592285D3*
X3228180Y4271996D3*
X2976211D3*
X3228180Y4095618D3*
X2976211D3*
X3606108Y4272098D3*
X3354139D3*
X3606108Y4095720D3*
X3354139D3*
X2844592Y3905684D3*
X2592623D3*
X2844592Y3729306D3*
X2592623D3*
X3234224Y3906874D3*
X2982256D3*
X3234224Y3730496D3*
X2982256D3*
X3611659Y3905672D3*
X3359690D3*
X3611659Y3729294D3*
X3359690D3*
D130*
X1428118Y5856370D3*
D128*
X1400598Y5830780D3*
D130*
X1428118Y5805150D3*
D128*
X1400520Y5779598D3*
D130*
X1428118Y5754008D3*
D128*
X1400598Y5728417D3*
D130*
X1428118Y5702827D3*
D128*
X1400598Y5677197D3*
D130*
X1428118Y5651646D3*
X1656740D3*
D128*
X1684299Y5677197D3*
D130*
X1656740Y5702787D3*
D128*
X1684299Y5728378D3*
D130*
X1656740Y5753969D3*
D128*
X1684299Y5779559D3*
D130*
X1656740Y5805150D3*
D128*
X1684299Y5830740D3*
D130*
X1656740Y5856331D3*
D128*
X1400598Y5627197D3*
X1684299D3*
D126*
X4124282Y3978987D3*
D124*
X3927904Y3979696D3*
D122*
X3928337Y5075837D3*
D120*
X4141684Y5044617D3*
D118*
X4153573Y5237530D3*
D116*
X1628815Y6631425D3*
Y6536937D3*
Y6429850D3*
X2044563Y6631425D3*
Y6536937D3*
Y6429850D3*
D55*
X3670390Y6723247D3*
Y6523247D3*
X3870390Y6723247D3*
D114*
X3770390Y6623247D3*
D55*
X3870390Y6523247D3*
D112*
X1881739Y3847965D3*
X1481739D3*
X1681739D3*
X1082769Y3848076D3*
X1282769D3*
X2081073Y3847839D3*
X2281073D3*
D110*
X1150854Y4063308D3*
X1226445D3*
X1188650Y4168033D3*
X640516Y3845887D3*
X716106D3*
X678311Y3950612D3*
D108*
X1389390Y4177852D3*
Y4366828D3*
D110*
X1565551Y5281201D3*
X1641142D3*
X1603346Y5385925D3*
D108*
X1643471Y4691895D3*
Y4502919D3*
D106*
X3540551Y6318701D3*
X3404824D3*
D76*
X4110827Y6666339D3*
X843110Y4343504D3*
X842969Y6666701D3*
D133*
X3934035Y5468657D3*
Y5397791D3*
D135*
X3790635Y5330879D3*
X3861501D3*
D100*
X2928146Y6691892D3*
X3016335D3*
X3153829Y6692462D3*
X3242018D3*
X3389046Y6693339D3*
X3477235D3*
X2703991Y6691660D3*
X2792180D3*
X2481633Y6694427D3*
X2569822D3*
D98*
X2840281Y5910083D3*
Y5866776D3*
Y5823469D3*
Y5780161D3*
Y5736854D3*
Y5693547D3*
Y5650240D3*
Y5606933D3*
Y5563626D3*
Y5520319D3*
Y5477012D3*
Y5433705D3*
D96*
X2980045Y5319531D3*
X3023352D3*
X3066660D3*
X3109966D3*
X3153274D3*
X3196580D3*
X3239887D3*
X3283196D3*
X3326501D3*
D98*
X3466265Y5433705D3*
Y5477012D3*
Y5520319D3*
Y5563626D3*
Y5606933D3*
Y5650240D3*
Y5693547D3*
Y5736854D3*
Y5780161D3*
Y5823469D3*
Y5866776D3*
Y5910083D3*
D96*
X3326501Y6024256D3*
X3283196D3*
X3239887D3*
X3196580D3*
X3153274D3*
X3109966D3*
X3066660D3*
X3023352D3*
X2980045D3*
D17*
X1676062Y5529308D3*
D93*
X2178218Y6006453D3*
D141*
X873783Y4692654D3*
X932839D3*
D137*
X1182579Y6026673D3*
Y6085728D3*
D141*
X1921801Y5518701D3*
X1980856D3*
X1921801Y5443701D3*
X1980856D3*
D137*
X2340551Y6581201D3*
Y6640256D3*
Y6465256D3*
Y6406201D3*
X2278051Y5818701D3*
Y5877756D3*
X2340551Y5631201D3*
Y5690256D3*
X2353051Y5818701D3*
Y5877756D3*
D141*
X2515551Y5974951D3*
X2456496D3*
D137*
X1537146Y5022165D3*
Y5081220D3*
D91*
X3781717Y5918789D3*
X3860457D3*
X3861223Y5809374D3*
X3782483D3*
D137*
X2140551Y5181201D3*
Y5122146D3*
X1365551Y5268701D3*
Y5327756D3*
D141*
X1499606Y5256201D3*
X1440551D3*
X2703273Y6581513D3*
X2644218D3*
X2928051Y5118701D3*
X2868996D3*
X2299853Y5056772D3*
X2240798D3*
X2300294Y4960125D3*
X2241239D3*
X2928051Y6593701D3*
X2868996D3*
D137*
X2265551Y5690256D3*
Y5631201D3*
X3078051Y6281201D3*
Y6340256D3*
D141*
X1980537Y4837974D3*
X1921482D3*
X2223734Y4865815D3*
X2282789D3*
X3415551Y6593701D3*
X3474606D3*
X3478051Y6518701D3*
X3418996D3*
X2490551Y5506201D3*
X2431496D3*
D137*
X1067999Y4071948D3*
Y4131003D3*
X864289Y4071455D3*
Y4130510D3*
X897594Y3862965D3*
Y3922020D3*
X762760Y4070913D3*
Y4129969D3*
D141*
X2199606Y5256201D3*
X2140551D3*
D137*
X2340551Y6231201D3*
Y6290256D3*
D141*
X3565551Y5118701D3*
X3624606D3*
X2477482Y4833592D3*
X2418427D3*
X1011283Y4617654D3*
X1070339D3*
Y4692654D3*
X1011283D3*
X2241385Y5158276D3*
X2300440D3*
X2476566Y5131388D3*
X2417510D3*
X3340551Y5118701D3*
X3281496D3*
X2473480Y5037238D3*
X2414425D3*
X2474747Y4938436D3*
X2415692D3*
X2690551Y6331201D3*
X2631496D3*
D137*
X2767618Y6316043D3*
Y6375098D3*
D141*
X2853289Y6443999D3*
X2912344D3*
X2690551Y6256201D3*
X2631496D3*
D89*
X765551Y4843701D3*
X832480D3*
X899409D3*
X966339D3*
X1033268D3*
D87*
X899409Y5298176D3*
D85*
X1493909Y4556850D3*
Y4607244D3*
Y4657638D3*
Y4708031D3*
X1279736Y4556850D3*
Y4607244D3*
Y4657638D3*
Y4708031D3*
D83*
X2369803Y4227991D3*
Y4706731D3*
X1815472Y4467361D3*
X1891063Y4706731D3*
Y4227991D3*
D44*
X1707509Y5131198D3*
X1959478D3*
D110*
X2065551Y4893701D3*
X2141142D3*
X2103346Y4998425D3*
D80*
X1636963Y4860281D3*
Y4935871D3*
X1532239Y4898076D3*
D110*
X3003051Y6418701D3*
X3078642D3*
X3040846Y6523425D3*
D80*
X2415551Y5881201D3*
Y5805610D3*
X2520276Y5843406D3*
X2417822Y5702537D3*
Y5626946D3*
X2522546Y5664741D3*
X2842618Y6378543D3*
Y6302953D3*
X2947343Y6340748D3*
X2640551Y6481201D3*
Y6405610D3*
X2745276Y6443406D3*
X829163Y3686218D2*
D28*
X729004D1*
X779083Y3736298D2*
Y3636139D1*
D29*
X661448Y3686219D3*
X4111352Y6227592D2*
D28*
Y6327751D1*
X4161432Y6277672D2*
X4061273D1*
D30*
X4111353Y6395307D3*
D147*
X1577631Y7282702D3*
X1677631D3*
X1777631D3*
X1877218Y7282559D3*
X1977218D3*
X1378130Y7283152D3*
X1478130D3*
D145*
X2128051Y8631201D3*
Y8731988D3*
Y8832776D3*
X2128060Y8933552D3*
Y9034344D3*
D143*
X1078051Y9268701D3*
X977264D3*
X876476D3*
X775689D3*
D141*
X3290551Y9443701D3*
X3231496D3*
X3287106Y9368701D3*
X3228051D3*
D143*
X3290551Y9618701D3*
X3192126D3*
D139*
X3590866Y8550133D3*
Y8455644D3*
D141*
X840551Y9131201D3*
X781496D3*
D137*
X2678051Y8806201D3*
Y8865256D3*
X2265551Y9793701D3*
Y9852756D3*
X1265551Y8831201D3*
Y8890256D3*
X966089Y7342727D3*
Y7283672D3*
D141*
X3365551Y9443701D3*
X3424606D3*
D143*
X1302029Y8186885D3*
Y8088459D3*
D137*
X796822Y7132942D3*
Y7073887D3*
D141*
X932839Y7830154D3*
X873783D3*
D143*
X1128051Y7631201D3*
Y7532776D3*
D137*
X2265551Y9677756D3*
Y9618701D3*
Y9443701D3*
Y9502756D3*
D141*
X1278051Y7693701D3*
X1337106D3*
X1503051D3*
X1443996D3*
D143*
X1627676Y7509946D3*
X1529251D3*
D141*
X1440551Y8543701D3*
X1499606D3*
D135*
X3933798Y8543736D3*
X4004664D3*
D133*
X3860010Y8681038D3*
Y8610172D3*
D141*
X3203051Y8443701D3*
X3262106D3*
X3365551Y9368701D3*
X3424606D3*
D137*
X795339Y7889209D3*
Y7830154D3*
X2603051Y8806201D3*
Y8865256D3*
X2665551Y8706201D3*
Y8647146D3*
X2740551Y8706201D3*
Y8647146D3*
X2590551Y8706201D3*
Y8647146D3*
D132*
X2840906Y8230329D3*
X2588937D3*
X2840906Y8053951D3*
X2588937D3*
X3214537Y8228323D3*
X2962568D3*
X3214537Y8051945D3*
X2962568D3*
X3592958Y8224097D3*
X3340990D3*
X3592958Y8047719D3*
X3340990D3*
X2842323Y7855568D3*
X2590354D3*
X2842323Y7679190D3*
X2590354D3*
X3220974Y7856954D3*
X2969005D3*
X3220974Y7680576D3*
X2969005D3*
X3596799Y7855904D3*
X3344831D3*
X3596799Y7679526D3*
X3344831D3*
X2844253Y7489602D3*
X2592285D3*
X2844253Y7313224D3*
X2592285D3*
X3228180Y7484496D3*
X2976211D3*
X3228180Y7308118D3*
X2976211D3*
X3606108Y7484598D3*
X3354139D3*
X3606108Y7308220D3*
X3354139D3*
X2844592Y7118184D3*
X2592623D3*
X2844592Y6941806D3*
X2592623D3*
X3234224Y7119374D3*
X2982256D3*
X3234224Y6942996D3*
X2982256D3*
X3611659Y7118172D3*
X3359690D3*
X3611659Y6941794D3*
X3359690D3*
D130*
X1428118Y9068870D3*
D128*
X1400598Y9043280D3*
D130*
X1428118Y9017650D3*
D128*
X1400520Y8992098D3*
D130*
X1428118Y8966508D3*
D128*
X1400598Y8940917D3*
D130*
X1428118Y8915327D3*
D128*
X1400598Y8889697D3*
D130*
X1428118Y8864146D3*
X1656740D3*
D128*
X1684299Y8889697D3*
D130*
X1656740Y8915287D3*
D128*
X1684299Y8940878D3*
D130*
X1656740Y8966469D3*
D128*
X1684299Y8992059D3*
D130*
X1656740Y9017650D3*
D128*
X1684299Y9043240D3*
D130*
X1656740Y9068831D3*
D128*
X1400598Y8839697D3*
X1684299D3*
D126*
X4124282Y7191487D3*
D124*
X3927904Y7192196D3*
D122*
X3928337Y8288337D3*
D120*
X4141684Y8257117D3*
D118*
X4153573Y8450030D3*
D116*
X1628815Y9843925D3*
Y9749437D3*
Y9642350D3*
X2044563Y9843925D3*
Y9749437D3*
Y9642350D3*
D55*
X3670390Y9935747D3*
Y9735747D3*
X3870390Y9935747D3*
D114*
X3770390Y9835747D3*
D55*
X3870390Y9735747D3*
D112*
X1881739Y7060465D3*
X1481739D3*
X1681739D3*
X1082769Y7060576D3*
X1282769D3*
X2081073Y7060339D3*
X2281073D3*
D110*
X1150854Y7275808D3*
X1226445D3*
X1188650Y7380533D3*
X640516Y7058387D3*
X716106D3*
X678311Y7163112D3*
D108*
X1389390Y7390352D3*
Y7579328D3*
D110*
X1565551Y8493701D3*
X1641142D3*
X1603346Y8598425D3*
D108*
X1643471Y7904395D3*
Y7715419D3*
D106*
X3540551Y9531201D3*
X3404824D3*
D76*
X4110827Y9878839D3*
X843110Y7556004D3*
X842969Y9879201D3*
D133*
X3934035Y8681157D3*
Y8610291D3*
D135*
X3790635Y8543379D3*
X3861501D3*
D100*
X2928146Y9904392D3*
X3016335D3*
X3153829Y9904962D3*
X3242018D3*
X3389046Y9905839D3*
X3477235D3*
X2703991Y9904160D3*
X2792180D3*
X2481633Y9906927D3*
X2569822D3*
D98*
X2840281Y9122583D3*
Y9079276D3*
Y9035969D3*
Y8992661D3*
Y8949354D3*
Y8906047D3*
Y8862740D3*
Y8819433D3*
Y8776126D3*
Y8732819D3*
Y8689512D3*
Y8646205D3*
D96*
X2980045Y8532031D3*
X3023352D3*
X3066660D3*
X3109966D3*
X3153274D3*
X3196580D3*
X3239887D3*
X3283196D3*
X3326501D3*
D98*
X3466265Y8646205D3*
Y8689512D3*
Y8732819D3*
Y8776126D3*
Y8819433D3*
Y8862740D3*
Y8906047D3*
Y8949354D3*
Y8992661D3*
Y9035969D3*
Y9079276D3*
Y9122583D3*
D96*
X3326501Y9236756D3*
X3283196D3*
X3239887D3*
X3196580D3*
X3153274D3*
X3109966D3*
X3066660D3*
X3023352D3*
X2980045D3*
D17*
X1676062Y8741808D3*
D93*
X2178218Y9218953D3*
D141*
X873783Y7905154D3*
X932839D3*
D137*
X1182579Y9239173D3*
Y9298228D3*
D141*
X1921801Y8731201D3*
X1980856D3*
X1921801Y8656201D3*
X1980856D3*
D137*
X2340551Y9793701D3*
Y9852756D3*
Y9677756D3*
Y9618701D3*
X2278051Y9031201D3*
Y9090256D3*
X2340551Y8843701D3*
Y8902756D3*
X2353051Y9031201D3*
Y9090256D3*
D141*
X2515551Y9187451D3*
X2456496D3*
D137*
X1537146Y8234665D3*
Y8293720D3*
D91*
X3781717Y9131289D3*
X3860457D3*
X3861223Y9021874D3*
X3782483D3*
D137*
X2140551Y8393701D3*
Y8334646D3*
X1365551Y8481201D3*
Y8540256D3*
D141*
X1499606Y8468701D3*
X1440551D3*
X2703273Y9794013D3*
X2644218D3*
X2928051Y8331201D3*
X2868996D3*
X2299853Y8269272D3*
X2240798D3*
X2300294Y8172625D3*
X2241239D3*
X2928051Y9806201D3*
X2868996D3*
D137*
X2265551Y8902756D3*
Y8843701D3*
X3078051Y9493701D3*
Y9552756D3*
D141*
X1980537Y8050474D3*
X1921482D3*
X2223734Y8078315D3*
X2282789D3*
X3415551Y9806201D3*
X3474606D3*
X3478051Y9731201D3*
X3418996D3*
X2490551Y8718701D3*
X2431496D3*
D137*
X1067999Y7284448D3*
Y7343503D3*
X864289Y7283955D3*
Y7343010D3*
X897594Y7075465D3*
Y7134520D3*
X762760Y7283413D3*
Y7342469D3*
D141*
X2199606Y8468701D3*
X2140551D3*
D137*
X2340551Y9443701D3*
Y9502756D3*
D141*
X3565551Y8331201D3*
X3624606D3*
X2477482Y8046092D3*
X2418427D3*
X1011283Y7830154D3*
X1070339D3*
Y7905154D3*
X1011283D3*
X2241385Y8370776D3*
X2300440D3*
X2476566Y8343888D3*
X2417510D3*
X3340551Y8331201D3*
X3281496D3*
X2473480Y8249738D3*
X2414425D3*
X2474747Y8150936D3*
X2415692D3*
X2690551Y9543701D3*
X2631496D3*
D137*
X2767618Y9528543D3*
Y9587598D3*
D141*
X2853289Y9656499D3*
X2912344D3*
X2690551Y9468701D3*
X2631496D3*
D89*
X765551Y8056201D3*
X832480D3*
X899409D3*
X966339D3*
X1033268D3*
D87*
X899409Y8510676D3*
D85*
X1493909Y7769350D3*
Y7819744D3*
Y7870138D3*
Y7920531D3*
X1279736Y7769350D3*
Y7819744D3*
Y7870138D3*
Y7920531D3*
D83*
X2369803Y7440491D3*
Y7919231D3*
X1815472Y7679861D3*
X1891063Y7919231D3*
Y7440491D3*
D44*
X1707509Y8343698D3*
X1959478D3*
D110*
X2065551Y8106201D3*
X2141142D3*
X2103346Y8210925D3*
D80*
X1636963Y8072781D3*
Y8148371D3*
X1532239Y8110576D3*
D110*
X3003051Y9631201D3*
X3078642D3*
X3040846Y9735925D3*
D80*
X2415551Y9093701D3*
Y9018110D3*
X2520276Y9055906D3*
X2417822Y8915037D3*
Y8839446D3*
X2522546Y8877241D3*
X2842618Y9591043D3*
Y9515453D3*
X2947343Y9553248D3*
X2640551Y9693701D3*
Y9618110D3*
X2745276Y9655906D3*
X829163Y6898718D2*
D28*
X729004D1*
X779083Y6948798D2*
Y6848639D1*
D29*
X661448Y6898719D3*
X4111352Y9440092D2*
D28*
Y9540251D1*
X4161432Y9490172D2*
X4061273D1*
D30*
X4111353Y9607807D3*
M02*
